<svg width="97" height="97" viewBox="0 0 97 97" fill="none" xmlns="http://www.w3.org/2000/svg">
<path d="M33.5855 78.723C34.8067 79.3336 36.2323 79.9442 37.4536 80.3517C37.8611 80.5548 38.0642 80.7592 38.2673 81.3698L39.4884 93.1767C39.6915 95.0085 41.3202 96.4341 43.1519 96.4341H53.3302C55.162 96.4341 56.7907 95.0084 56.9937 93.1767L58.2149 81.3698C58.2149 80.9623 58.6224 80.5562 59.0285 80.3517C60.4542 79.9442 61.6753 79.3336 62.8967 78.723C63.3042 78.5199 63.7103 78.5199 64.1178 78.9261L73.4826 86.4576C74.9083 87.6788 77.1461 87.4758 78.5718 86.2546L85.9002 78.9262C87.3258 77.5005 87.3259 75.4657 86.1032 73.837L78.5717 64.4722C78.3686 64.0647 78.1641 63.6586 78.3686 63.2511C78.9792 62.0299 79.5898 60.6043 79.9973 59.3829C80.2004 58.9754 80.4048 58.7723 81.0154 58.5693L92.8223 57.3481C94.6541 57.145 96.0797 55.5163 96.0797 53.6846V43.5063C96.0797 41.6745 94.654 40.0459 92.8223 39.8428L80.8137 38.8233C80.4062 38.8233 80 38.4158 79.7956 38.0096C79.388 36.584 78.7774 35.3628 78.1668 34.1415C77.9638 33.734 77.9638 33.3279 78.3699 32.9203L85.9015 23.5555C87.1227 22.1299 86.9196 19.8921 85.6984 18.4664L78.37 11.138C76.9444 9.71233 74.9096 9.71233 73.2809 10.9349L63.9161 18.4665C63.5086 18.6696 63.1024 18.8741 62.6949 18.6696C61.4737 18.059 60.0481 17.4484 58.8268 17.0409C58.4193 16.8378 58.2162 16.6333 58.0131 16.0227L56.792 4.21589C56.5889 2.38411 54.9602 0.958496 53.1285 0.958496H42.9502C41.1184 0.958496 39.4897 2.38415 39.2867 4.21589L38.2671 16.2274C38.2671 16.6349 37.8596 17.0411 37.4535 17.2455C36.0278 17.6531 34.8067 18.2637 33.5854 18.8742C33.1778 19.0773 32.7717 19.0773 32.3642 18.6712L22.9994 11.1396C21.5737 9.91841 19.3359 10.1215 17.9102 11.3426L10.5818 18.671C9.15618 20.0967 9.15618 22.1315 10.3788 23.7602L17.9104 33.125C18.1134 33.5325 18.3179 33.9386 18.1134 34.3462C17.5028 35.5674 16.8923 36.993 16.4847 38.2143C16.2817 38.6218 16.0772 38.8249 15.4666 39.028L3.65974 40.2491C1.82797 40.4522 0.402344 42.0809 0.402344 43.9126V54.0909C0.402344 55.9227 1.828 57.5514 3.65974 57.7544L15.4666 58.9756C15.8741 58.9756 16.2803 59.3831 16.4847 59.7892C16.8923 61.2149 17.5028 62.436 18.1134 63.6574C18.3165 64.0649 18.3165 64.471 17.9104 64.8785L10.3788 74.2433C9.1576 75.669 9.36066 77.9068 10.5818 79.3325L17.9102 86.6609C19.3359 88.0865 21.3707 88.0865 22.9994 86.8639L32.3642 79.3323C32.7717 78.7232 33.1778 78.5201 33.5854 78.7232L33.5855 78.723ZM48.2423 31.0884C58.0131 31.0884 65.9522 39.0275 65.9522 48.7983C65.9522 58.5692 58.0131 66.5083 48.2423 66.5083C38.4714 66.5083 30.5323 58.5692 30.5323 48.7983C30.5323 39.0275 38.4714 31.0884 48.2423 31.0884V31.0884Z" fill="#225497"/>
</svg>
