<svg width="28" height="28" viewBox="0 0 28 28" fill="none" xmlns="http://www.w3.org/2000/svg">
<path d="M6.25 28V9.3125H0.4375V28H6.25ZM3.3125 6.8125C5.1875 6.8125 6.6875 5.25 6.6875 3.375C6.6875 1.5625 5.1875 0.0625 3.3125 0.0625C1.5 0.0625 0 1.5625 0 3.375C0 5.25 1.5 6.8125 3.3125 6.8125ZM27.9375 28H28V17.75C28 12.75 26.875 8.875 21 8.875C18.1875 8.875 16.3125 10.4375 15.5 11.875H15.4375V9.3125H9.875V28H15.6875V18.75C15.6875 16.3125 16.125 14 19.125 14C22.125 14 22.1875 16.75 22.1875 18.9375V28H27.9375Z" fill="white"/>
</svg>
