<svg width="191" height="146" viewBox="0 0 191 146" fill="none" xmlns="http://www.w3.org/2000/svg">
<path d="M0 145.739V107.386C0 95.7386 2.05966 83.3807 6.17898 70.3125C10.4403 57.1023 16.5483 44.3892 24.5028 32.1733C32.5994 19.8153 42.3295 9.0909 53.6932 0L80.9659 22.1591C72.017 34.9432 64.2045 48.2955 57.5284 62.2159C50.9943 75.9943 47.7273 90.767 47.7273 106.534V145.739H0ZM109.091 145.739V107.386C109.091 95.7386 111.151 83.3807 115.27 70.3125C119.531 57.1023 125.639 44.3892 133.594 32.1733C141.69 19.8153 151.42 9.0909 162.784 0L190.057 22.1591C181.108 34.9432 173.295 48.2955 166.619 62.2159C160.085 75.9943 156.818 90.767 156.818 106.534V145.739H109.091Z" fill="white" fill-opacity="0.3"/>
</svg>
