<svg width="102" height="124" viewBox="0 0 102 124" fill="none" xmlns="http://www.w3.org/2000/svg">
<path d="M70.4578 106.458C78.1209 106.458 84.2813 100.298 84.2813 92.7087C84.2813 85.1207 78.1209 78.9594 70.4578 78.8853C62.8698 78.9612 56.7085 85.1217 56.7085 92.7087C56.7095 100.296 62.8698 106.458 70.4578 106.458ZM100.136 114.347C102.315 116.6 102.315 120.132 100.136 122.31C97.8826 124.563 94.3515 124.563 92.1732 122.31L83.7593 113.896C79.9283 116.375 75.3453 117.727 70.4608 117.727C56.6374 117.727 45.4414 106.533 45.4414 92.7075C45.4414 78.8821 56.6354 67.6143 70.4608 67.6143C84.2862 67.6143 95.554 78.8843 95.554 92.7075C95.554 97.5903 94.1264 102.099 91.7231 105.93L100.136 114.347Z" fill="#225497"/>
<path d="M31.0124 90.3062C34.1685 90.3062 36.647 92.8595 36.647 95.9408C36.647 99.0211 34.1677 101.575 31.0124 101.575H28.5331C25.4528 101.575 22.8984 99.0221 22.8984 95.9408C22.8984 92.8605 25.4518 90.3062 28.5331 90.3062H31.0124Z" fill="#225497"/>
<path d="M41.6078 73.327C41.6078 76.4073 39.1285 78.9617 35.9732 78.9617H28.535C25.4548 78.9617 22.9004 76.4083 22.9004 73.327C22.9004 70.2467 25.4538 67.6924 28.535 67.6924H35.9732C39.1293 67.6914 41.6078 70.2467 41.6078 73.327Z" fill="#225497"/>
<path d="M73.6103 45.0791C76.6906 45.0791 79.245 47.6325 79.245 50.7137C79.245 53.794 76.6916 56.3484 73.6103 56.3484L28.5331 56.3474C25.377 56.3474 22.8984 53.7941 22.8984 50.7128C22.8984 47.6325 25.3777 45.0781 28.5331 45.0781L73.6103 45.0791Z" fill="#225497"/>
<path d="M73.6103 22.4639C76.6906 22.4639 79.245 25.0172 79.245 28.0985C79.245 31.2546 76.6916 33.7332 73.6103 33.7332L28.5331 33.7322C25.377 33.7322 22.8984 31.2529 22.8984 28.0975C22.8984 25.0172 25.3777 22.4629 28.5331 22.4629L73.6103 22.4639Z" fill="#225497"/>
<path d="M101.786 21.3366V62.5819C101.786 65.6622 99.307 68.2166 96.1517 68.2166C93.0714 68.2166 90.517 65.6632 90.517 62.5819L90.518 21.3366C90.518 18.5563 89.3903 16.077 87.5878 14.1985C85.7093 12.3959 83.23 11.2683 80.4497 11.2683H21.6987C16.1391 11.2683 11.6314 15.776 11.6314 21.3356V102.625C11.6314 108.26 16.0633 112.693 21.6987 112.693L40.2548 112.694C43.4109 112.694 45.8894 115.247 45.8894 118.328C45.8894 121.408 43.4101 123.963 40.2548 123.963L21.6987 123.962C15.8384 123.962 10.4286 121.558 6.59772 117.725C2.7668 113.893 0.361328 108.485 0.361328 102.625V21.3374C0.361328 9.61743 9.90295 0 21.6987 0H80.4497C92.2447 0.0009613 101.786 9.54237 101.786 21.3374L101.786 21.3366Z" fill="#225497"/>
</svg>
